﻿Name;Local Id;Google Id;List Name;Notes;Due Date;Completed;Compl. Date;Last Modified;Depth
Make notes for Sandra for neurologist;18111;MDdHU1JrX19vN0JoZUdXMw;A.Q1. Next Actions;;09/10/2019;false;;09/10/2019 17:13:49_0;0
think about what Sandra can do to help with me treating her more like a best friend;18110;WVlibEVCR1NOWlB0MXZsQw;A.Q1. Next Actions;;09/10/2019;false;;09/10/2019 17:13:50_0;0
touch up hard waxing on chin and eyebrows;18081;MDI4MTE3NzExODA2NzQ3MDI2NzI6MTI0MzAxMzM3ODoxODQwNjcyOTQ5NTczMTE5;A.Q1. Next Actions;;09/11/2019;false;;09/09/2019 19:18:47_0;0
ERRAND TRIP (< ~7pm):;18170;UWhsRHlmeUFqaXNEV3FLWA;A.Q1. Next Actions;;;false;;09/11/2019 17:53:40_0;0
stop by shoe store for better shoes, and get sized for womens shoes - check sizing for the boots I need from Amazon!;18171;ZVJZQ2xRcmpZS2pDR3p3aA;A.Q1. Next Actions;;;false;;09/11/2019 17:53:41_0;1
get more peroxide for carpet, from CVS;17951;UVB4YU40ZjJvcTJBeHIyYQ;A.Q1. Next Actions;;09/11/2019;false;;09/09/2019 12:26:07_0;1
get a paint sealer and seal in the soap holder, and test sealing on PLA;18082;MDI4MTE3NzExODA2NzQ3MDI2NzI6MTI0MzAxMzM3ODo5MTc1NjQ4ODgzMzcyMzg4;A.Q1. Next Actions;;09/11/2019;false;;09/09/2019 15:09:32_0;1
get flu shot at CVS;17971;MDI4MTE3NzExODA2NzQ3MDI2NzI6MTI0MzAxMzM3ODoxNTkzMzU4NTk3NjkxMzQx;A.Q1. Next Actions;;09/11/2019;false;;09/09/2019 12:33:19_0;1
check sizing instructions for cage, then order rubber rings for testing;18169;aXd5VnNfOHNDMjM0V2s1YQ;A.Q1. Next Actions;;09/11/2019;false;;09/11/2019 17:53:51_0;0
check out youp___ vs ____hub;18114;UXVFREh3a0VmSTBGTzZoeQ;A.Q1. Next Actions;;09/10/2019;true;09/10/2019;09/10/2019 23:41:00_0;0
Save to CR-10 Upgrades: CR-10/S Spool Holder by papi8570 - Thingiverse;18112;X2JFZ0QwaEtFUkhGZDJBUg;A.Q1. Next Actions;https://www.thingiverse.com/thing:3155346;09/10/2019;true;09/11/2019;09/11/2019 02:03:30_0;0
print another full (on its side) seperating shaft, and many more seperating caps, and new BMR sigil;18113;ZXpXRV9pbXZOZ2I5czhYRg;A.Q1. Next Actions;;;true;09/11/2019;09/11/2019 02:03:30_0;1
PJ: Project ANGEL: Plan out ANGEL in notebook!;17956;WG9WUEFfU0xzaXFRc183MQ;A.Q1. Next Actions;Clear STRONG PLA: https://rigid.ink/collections/pla-filaments/products/abs-1-75mm-3d-filament-0-03mm-tolerance-1kg-roll?variant=999955353;09/08/2019;false;;09/06/2019 23:29:04_0;0
buy extra strong PLA: Clear STRONG PLA: https://rigid.ink/collections/pla-filaments/products/abs-1-75mm-3d-filament-0-03mm-tolerance-1kg-roll?variant=999955353;17957;RGZJZEp6Z2p4S0htV24xag;A.Q1. Next Actions;;;false;;09/05/2019 00:36:18_0;1
design elbow joints, begin setup to build K-Arms;17958;bXZDdnZfcVJ3VUV2dFQwcQ;A.Q1. Next Actions;;;true;09/11/2019;09/11/2019 17:53:54_0;1
start print for K-hands;18172;ZE1wUzlocThBQ1ZJRjV0YQ;A.Q1. Next Actions;;09/11/2019;false;;09/11/2019 17:53:53_0;1
PJ: LELA;15524;MDI4MTE3NzExODA2NzQ3MDI2NzI6MTI0MzAxMzM3ODoyODkxODgwNzM2Njg3NDA0MDY5Mg;A.Q1. Next Actions;"print part A attempt 01
model first LELA case: top part B (& more?)
print top part, inner
model first case: interior, bottom
model the hinge and a basic living-hinge latch mechanism
combine all to model first real case and set up all as first professional ""model"" and prepare plan to print it";;false;;08/24/2019 17:51:53_0;0
model and prepare to print bottom half, inner portion LELA;17949;MDI4MTE3NzExODA2NzQ3MDI2NzI6MTI0MzAxMzM3ODo1NjQ3MDYxOTc4NDU0NTk3;A.Q1. Next Actions;;09/09/2019;false;;09/09/2019 12:25:26_0;1
find what I need to respond to equifax breach settlement email in main email account;18086;MDI4MTE3NzExODA2NzQ3MDI2NzI6MTI0MzAxMzM3ODoyMDgwMTM1MTY5MTkyMDE2;A.Q1. Next Actions;;09/09/2019;true;09/09/2019;09/09/2019 21:43:30_0;0
PJ: EIT System;16515;MDI4MTE3NzExODA2NzQ3MDI2NzI6MTI0MzAxMzM3ODo2NzkzMTg5ODE3NjcyNDQ1NTU2MQ;A.Q1. Next Actions;"Goal: get the EIT software working on my laptop using the current EIT tank
run EIDORS code for EIT tank
see what Dr. Coleman wants to meet
write or update code to get data from Red Pitaya
test out new EIT tank";;false;;09/04/2019 14:36:55_0;0
test MUX testing script, then plan how to get data from the tank;17969;X2RPdVFZTWlPankxY0V4Vg;A.Q1. Next Actions;;09/10/2019;false;;09/09/2019 12:31:28_0;1
PJ: 3D printer v2.0;17962;R3hWdXdTRWd0T1ZXNUc1Rw;A.Q1. Next Actions;;;false;;09/06/2019 14:41:12_0;0
install Arduino on lappy;17965;Uzl5LVN2MThUMV94UXpSbQ;A.Q1. Next Actions;;09/10/2019;false;;09/09/2019 12:25:18_0;1
upgrade cr-10 firmware (see first link for step-by-step!);17966;WkltZU8teXE0Y0VJSDdTZw;A.Q1. Next Actions;"https://www.youtube.com/watch?v=17BmvUSKntE
http://www.3dprintingforum.us/viewtopic.php?t=1411
https://plugins.octoprint.org/plugins/firmwareupdater/
https://www.reddit.com/r/CR10/comments/8jv35l/cr10s_firmware_upgrade_tutorial/";09/10/2019;false;;09/09/2019 12:30:23_0;1
test-print the new firmware;17967;MDI4MTE3NzExODA2NzQ3MDI2NzI6MTI0MzAxMzM3ODoxNTMzODkwMzQ1MzcxMjQy;A.Q1. Next Actions;;09/11/2019;false;;09/09/2019 12:30:37_0;1
install BLTouch (see first link for step-bY-step!);17700;aURnZ0dGb29QR3J3MlNtYQ;A.Q1. Next Actions;"https://www.thingiverse.com/thing:2975949
https://www.reddit.com/r/3Dprinting/comments/anry5t/cr10_s5_and_bltouch/";09/11/2019;false;;09/09/2019 12:30:41_0;1
design and print BE MORE sigil v2;18041;MDI4MTE3NzExODA2NzQ3MDI2NzI6MTI0MzAxMzM3ODozNDg0MTczNjU0NTI0MDY4;A.Q1. Next Actions;;;false;;09/09/2019 12:33:47_0;1
Meet with Sandra and Ben Friday night, so go to bed early tonight!;18092;VjNhODctcndnZUI5RkZldA;A.Q1. Next Actions;;09/12/2019;false;;09/09/2019 18:09:59_0;0
clean up area in front of kitchen door;17970;MDI4MTE3NzExODA2NzQ3MDI2NzI6MTI0MzAxMzM3ODo0MjQ5NTY5MzgyODY1NDA4;A.Q1. Next Actions;;09/11/2019;false;;09/09/2019 12:31:53_0;0
PJ: Make a jomo;18093;azZjRDFHZ0FKRDFLdzctUg;A.Q1. Next Actions;"MAKE PLAN: Create mojo talisman: feracity: use ALL goddesses, link it to self and Sandra, see notes below
https://en.wikipedia.org/wiki/Mojo_(African-American_culture)
Consider waiting until I can finish purely by bottoming, and use result to help fuel the talisman OR to inscribe the sigil. Use other ingredients similarly?";;false;;09/09/2019 18:10:01_0;0
set up jomo ritual;18094;LThVeUYyQU9DSXJLLWVfVQ;A.Q1. Next Actions;;09/12/2019;false;;09/09/2019 18:10:05_0;1
PURCHASES:;13502;MDI4MTE3NzExODA2NzQ3MDI2NzI6MTI0MzAxMzM3ODo5NzA5OTA5OTg1OTM3NzY0;A.Q1. Next Actions;;;false;;07/04/2019 13:32:16_0;0
100: get 100$ of bitcoin for neurogenics (or most stable coin, predicted over next year);14374;MDI4MTE3NzExODA2NzQ3MDI2NzI6MTI0MzAxMzM3ODo3MTI5NTg2NDU4MTIxNTYz;A.Q1. Next Actions;;;false;;07/04/2019 13:32:16_0;1
buy Aco, phenylpiracetam for self and sandra;13380;MDI4MTE3NzExODA2NzQ3MDI2NzI6MTI0MzAxMzM3ODoxNDkzNDA5MDc4OTUwNzcw;A.Q1. Next Actions;;;false;;07/26/2019 12:57:51_0;1
buy heavy metal toxicity test;14375;MDI4MTE3NzExODA2NzQ3MDI2NzI6MTI0MzAxMzM3ODo3OTcyMzE4MDM4MDcwNDI4;A.Q1. Next Actions;;;false;;07/04/2019 13:32:16_0;1
PJ: rm hair;17952;eVlFTWVTX1laREFDWElhTA;A.Q1. Next Actions;;;false;;09/05/2019 15:27:20_0;0
Wax: legs, torso;17953;SzRUNXdyTk1JLXNPOE03Zg;A.Q1. Next Actions;;09/09/2019;false;;09/09/2019 12:26:14_0;1
Shave, straight: right arm, spots of others;17954;R2d6SzlVTlpDM2x3Z0QybA;A.Q1. Next Actions;;09/09/2019;false;;09/09/2019 12:26:16_0;1
Shave, 5-blade: all, as needed;17955;ekZ0ZXZDeEtNMGVGOU15ZA;A.Q1. Next Actions;;09/09/2019;false;;09/09/2019 12:26:19_0;1
sort inbox of Reference;15518;MDI4MTE3NzExODA2NzQ3MDI2NzI6MTI0MzAxMzM3ODozOTE3MzE2MzU3OTI5ODE0NjExMg;A.Q1. Next Actions;;;false;;07/04/2019 13:32:16_0;0
PJ: Future shirts;17671;b0Noakl0cGMwckY5VHZoZg;A.Q1. Next Actions;"draw large sketch of nymphaeum band shirt
<convert to binary file, ideally svg>
print it onto acrylic
prepare the silk screen
set the image on the silk screen
mix up the ink (fuschia? purple/pink? ""marbled"" combination?)
make 1 shirt for Sandy, and 1 for me :3 (2 female shirts, 2 male shirts: 1 of each gender, for both of us)";;false;;08/20/2019 14:21:30_0;0
make all particle effects, musical notes, chains, sparks, skulls, etc.;17960;TTR4NFlUc1hBMzY3cVdWTg;A.Q1. Next Actions;;09/12/2019;false;;09/09/2019 19:18:43_0;1
composite everything Nymphaeum into a single .svg file;17961;bHRocDNrOHJOMGwyN1lKXw;A.Q1. Next Actions;;;false;;09/06/2019 14:53:27_0;1
bring hot glue gun to work;18107;Q29ySk1nREd4QXZDTjBYSA;A.Q1. Next Actions;;09/10/2019;true;09/10/2019;09/10/2019 23:39:48_0;0
bring mini HDMI adapter from home;18108;U0xfblBNNkRnek5KSVRxdg;A.Q1. Next Actions;;09/10/2019;true;09/10/2019;09/10/2019 23:39:38_0;0
