Observer1Trial1,Observer1Trial2,Observer1Trial3,Observer2Trial1,Observer2Trial2,Observer2Trial3,Observer3Trial1,Observer3Trial2,Observer3Trial3
3.107947754,2.76505127,2.668612061,2.629021729,2.631498291,2.695776855,2.716291992,2.671294678,2.670479248
5.23109668,5.398491699,5.119671875,5.012458984,5.207564941,5.232504395,5.420662109,5.369132324,5.232652832
5.638079102,5.682377441,5.63929248,5.508312988,5.673941406,5.563894531,5.66585498,5.563737793,5.597347656
6.065663574,6.159249023,6.013025879,6.049324219,6.047501465,5.986947754,6.235539063,6.108482422,6.073505371
6.803075684,6.755293945,6.565641602,6.903974609,6.826782715,6.840272949,6.78513916,6.709246582,6.631191895
7.435952148,7.425234863,7.253090332,7.431518066,7.379799316,7.089987793,7.647483398,7.339381836,7.349708496
8.234993164,7.861069824,7.944085449,7.783316895,8.135677734,7.973846191,7.943870605,7.863892578,7.860878906
7.938376465,7.729849121,7.522068359,7.873097168,7.944390625,8.047415527,7.955015625,7.976912598,7.78398291
6.792307617,6.743407715,6.698858398,6.764848633,6.923756348,6.913276855,6.951973145,6.710762207,6.68797168
5.576265625,5.748067383,5.651703613,5.684570801,5.650833496,5.67289502,5.638376953,6.111846191,6.080702148
4.925594238,4.941404297,4.842858398,4.846686035,4.804541992,4.860254883,4.955033203,4.875751465,4.928608887
5.713881836,5.636688477,4.813796387,5.667231934,5.636109375,5.660686035,5.759780273,5.71485498,5.633455078
5.933521973,5.733248047,5.725687012,5.832186523,5.969828613,5.968393555,5.861277832,5.971329102,5.866550293
5.952066406,6.029052246,5.746008789,6.044964355,5.994612793,5.962883789,5.883060059,5.881597168,5.88573291
6.023515137,5.869000977,6.046472168,6.096604004,5.909582031,5.949766113,5.412231445,6.056660645,6.161171387
6.221181641,6.135937012,6.054428223,6.08877832,6.133360352,6.208900879,6.111737793,6.139655273,6.089135742
6.168107422,6.157269043,6.203417969,6.138469238,6.236028809,6.221556152,6.189718262,6.171919434,6.217856445
6.344787598,6.318369141,6.261411133,6.342823242,6.247802246,6.198865723,6.383799805,6.316956055,6.292489746
5.841423828,5.780413086,5.733868164,5.829077148,6.073804688,5.99223291,6.111607422,5.902586426,6.043373047
2.942557129,2.957825684,2.90922168,2.890556152,2.828560547,2.784141602,3.051003906,3.021566162,2.910919189
2.061995605,2.185875244,2.040760498,2.104986328,2.068817871,2.108563721,2.169943604,2.076524902,2.187987549
4.120392578,4.047957275,4.06176001,4.03753418,3.93583252,4.195254395,4.440168945,4.061701904,4.046422607
5.371962891,4.720220215,4.670564453,4.790495605,4.52987207,4.702968262,5.297103516,4.540519531,4.783585449
6.23196875,6.109129883,6.089269531,6.274192383,6.355094238,6.304313965,7.165391113,6.298172852,6.317824707
8.627180664,7.363820313,7.431769043,7.720213867,7.672969238,7.789134277,8.38619043,7.47247168,7.707717285
8.701007813,8.620078125,8.586858398,8.891216797,8.802225586,8.63506543,10.52920313,8.707597656,8.800539063
9.288007813,9.625998047,9.258702148,9.598067383,9.751681641,9.621404297,11.14637891,9.849566406,9.571642578
9.272524414,9.807787109,9.814098633,10.06591211,9.631220703,10.05270117,9.106276367,9.963238281,10.07255371
9.538871094,9.494445313,9.354261719,9.712111328,9.6338125,9.589182617,9.808644531,9.745584961,9.934200195
7.007498535,7.003168945,6.88848877,7.184413574,6.977260254,7.138895508,7.69752832,7.118924805,7.09967334
5.648875,5.529754883,5.305302734,5.494503906,5.457467285,5.630200684,5.669801758,5.766426758,5.749648438
6.739695801,6.681847656,6.738725586,6.840650391,6.832645508,6.786931641,7.244164063,7.03156543,7.028802246
7.282561035,7.263038574,7.147209473,7.295726563,7.203385254,7.274726074,7.409266113,7.336469727,7.48270459
7.188702637,7.148350098,7.128928711,7.34036377,6.991833496,7.154931152,7.237184082,7.2419375,7.319181152
7.358713867,7.324727051,7.228663574,7.396443848,7.253647461,7.20004834,7.455098145,7.39490918,7.383538574
6.984719238,7.132350098,6.99700293,6.927660645,7.00672168,6.994783203,7.111174805,7.058215332,7.14127832
6.657053223,7.033291504,6.966027832,7.045131836,6.904404297,6.808769043,7.153255859,6.994504883,7.02910498
5.961858398,6.633104492,6.56368457,6.613331543,6.326475586,6.424880859,6.673052246,6.611773438,6.579176758
2.961798096,2.965104736,3.31101416,3.297987549,3.020756836,3.169398193,4.439233398,3.425508057,3.185278076
1.539687378,1.665750366,1.706143799,1.716587646,1.539162476,1.817000488,2.092562744,1.872539795,1.832643066
11.19373047,11.15808691,11.02796191,11.25774316,11.12736719,11.31752148,11.24215918,11.2714707,11.3505791
12.3516084,11.9800957,12.45347266,12.33504688,12.3195918,12.91694824,12.37513867,12.5891875,12.60344531
12.53747363,12.17038574,12.35652246,13.97009766,12.2997793,12.10535156,12.48976074,12.88016504,13.20193848
13.61269141,13.32542188,13.61255566,12.3279668,13.51658106,13.73402148,13.65046484,13.78945215,14.14130762
15.76533301,14.68819238,15.42607227,14.67986914,15.47482617,15.37965723,16.0813877,15.32516406,15.72805273
17.34283398,16.46463672,16.90920508,17.39704492,16.51991016,17.27609961,16.87246094,17.40358594,17.32126367
17.92732617,17.04885352,17.25120703,17.547875,17.3254375,16.83375586,17.66670508,17.74876953,17.85012109
18.20249219,17.35323047,17.67270313,17.72946289,17.65280078,17.50285156,17.85664063,18.06753516,18.45851172
17.27616602,16.95688086,17.13646875,15.94418945,17.14093164,17.63749805,17.37642969,17.53744727,17.44909961
15.01567969,14.54795508,14.40762109,14.44431836,14.75410156,14.46225098,14.91276074,15.07351563,15.16411035
12.98135254,12.32059863,12.48055859,12.4836543,12.73530469,12.98425879,12.77759375,12.88072168,12.98896484
12.85446875,13.13412012,12.40680762,12.65875,12.54877539,12.54968652,12.69903027,12.84657129,12.76548633
13.73507813,13.19048047,13.28220313,13.60227441,13.44732324,13.60336426,13.56952148,13.77947363,13.79190723
14.05702148,13.39661816,13.54876172,13.77271094,13.67144727,13.76937988,13.74717481,13.80194629,13.84493457
14.19749512,13.43399023,13.53240234,13.89255566,13.56804492,13.88921777,13.66770215,13.88338867,13.88354004
14.0028457,13.41298828,13.39922559,13.60730371,13.50528906,14.01455957,13.80028809,13.76786914,14.03495898
14.06818359,13.28976758,13.39374609,13.48314648,13.58041309,13.72876172,13.89158789,13.85084863,13.85600195
13.32493848,13.45692578,13.40565625,13.29894336,13.46409863,13.29943262,13.88757031,13.95556641,13.72387305
11.31211914,11.4105459,11.28297461,11.26811035,11.6036875,11.46144922,11.00282324,11.68873731,11.66104395
7.899202148,7.447039551,7.505405273,7.264290527,7.482883789,7.295617188,7.505124023,7.644369629,7.722615234
2.957395264,2.819163086,2.796556396,2.886516602,2.681618164,2.818400146,2.959031494,2.917703369,2.92949292
3.39108374,3.210994873,3.178757568,3.344492188,3.337731689,3.280378906,3.37077124,3.412174316,3.406753174
3.713170654,3.580877197,3.583837158,3.687055176,3.708146973,3.540242432,3.654126221,3.695515625,3.610223633
4.427471191,4.157819336,4.120902344,4.467058105,4.427878906,4.353888184,4.578605469,4.375806641,4.476983887
4.862763672,4.759439453,4.791390625,4.797387695,4.946987793,4.844856445,5.038609863,4.95732959,5.060006348
5.734181641,5.281998535,5.360861816,5.462362305,5.698577637,5.504215332,5.620822266,5.650001953,5.476544922
5.572961426,5.389130371,5.592213867,5.789519531,5.559212891,5.623204102,5.606521484,5.651461914,5.742280273
5.864463379,5.514895508,5.599486816,5.943179199,5.785583008,5.685861816,5.953645996,6.036459961,5.944125977
5.304193848,5.228066406,5.370083008,5.453583496,5.643314941,5.485057129,5.456466797,5.553189453,5.588998047
4.39055957,4.143937012,4.262231445,4.527867188,4.477652832,4.299918457,4.321277832,4.321723633,4.352206055
3.594468018,3.374383301,3.658458984,3.58245752,3.569551758,3.582223633,3.683352051,3.727746826,3.629263184
3.836242188,3.505557373,3.64199585,3.636379639,3.807429932,3.583061768,3.898615967,3.905098389,3.827375
4.10401416,3.853325928,3.902619629,3.912498291,3.963669678,3.868673584,4.171447754,4.095325684,4.14835791
4.218416016,3.948102051,4.121518066,4.16884668,3.811535889,4.043769531,4.172031738,4.190598145,4.204849121
4.256710938,3.950777588,4.132058594,4.145844727,3.948907715,4.15135498,4.270428711,4.294381836,4.288117188
4.228067871,4.142552246,4.12851416,4.248881348,4.202859375,3.922474365,4.186452148,4.283959473,4.286817383
4.215631348,3.992658936,4.118721191,4.068215332,4.215672363,3.919651367,4.215614258,4.115568359,4.339165527
4.061638184,4.078404785,4.186495117,3.90903418,4.261682129,3.949266846,4.11939209,4.173461914,4.088154053
2.608476807,2.475980957,2.517662109,2.653231934,2.595520264,2.227511963,2.599810547,2.684266113,2.667769531
2.045919556,1.918115723,2.060688721,1.565209717,2.066835205,1.890583984,2.076669678,2.075962158,2.127907715
5.277922363,5.129125,5.113299805,5.28762793,5.835273438,5.562626465,5.190256836,5.308041016,5.076317383
6.590192871,6.685372559,6.781947266,6.906263672,6.973179688,6.873984375,6.804182617,6.77817627,6.740521973
6.641804688,6.772778809,6.822631836,6.818708984,6.917790039,6.913349609,6.80005127,6.765053223,6.831193848
7.476077148,7.496558594,7.471043457,7.532269531,7.642182617,7.522560547,7.627156738,7.656514648,7.55747998
7.841220703,7.665743652,7.782808594,7.687747559,7.966818848,7.810238281,7.970510742,7.926641113,7.836134766
8.119367676,8.315277344,8.235984375,8.308478516,8.378166992,8.266510742,8.355897461,8.353631836,8.41669043
8.324079102,8.381418945,8.497227539,8.454238281,8.525327148,8.739426758,8.533382813,8.60924707,8.381394531
8.679162109,8.405835938,8.50046875,8.560363281,8.619117188,8.506068359,8.74965332,8.886724609,8.774568359
8.759823242,8.530769531,8.673689453,8.766741211,8.705401367,8.5599375,8.915621094,8.832164063,9.015487305
7.096043945,6.844157227,7.273993164,6.882134277,7.628145508,7.235975586,7.506394531,7.414224609,7.258975098
6.661598633,6.666838379,6.777196289,6.716790527,7.003881348,6.933925781,6.893188965,6.859137207,6.968703125
6.752143066,6.735841309,6.910007813,6.974614258,7.118882813,6.984187012,6.917274414,6.843577637,6.943064453
6.956829102,6.903207031,7.073179688,7.342864746,7.138166992,7.033935059,7.091579102,7.227459473,7.091494629
7.18220459,6.982998047,7.071734375,7.337544922,7.406637207,7.227569824,7.160935547,7.187407227,7.146658203
6.964910156,6.930203613,6.937286621,7.088210449,7.327306641,7.196549316,6.995787109,7.128713867,7.076167969
7.12204248,7.046451172,7.182777832,7.367478516,7.42032959,7.293791992,7.24651709,7.306407715,7.283013672
7.302333008,7.16201709,7.214722656,7.657144043,7.585557617,7.373291504,7.530688477,7.529834473,7.506255859
7.414860352,7.304505859,7.538254395,7.762008789,7.239564941,7.49996582,7.530807617,7.439229492,7.585409668
5.735927734,5.562388672,5.699773438,6.158884766,6.406000977,5.655683105,5.71401123,5.641146484,5.636258789
4.239166992,3.938934082,4.199146973,4.910814453,4.217347656,4.07688623,4.287290527,3.829427246,3.858961426
4.577598633,4.683617676,4.704250488,4.51799707,4.783949219,4.766172363,4.73358252,4.677689453,4.670210938
6.381862305,6.426790039,6.582329102,6.19410498,6.382385254,6.332512695,6.556210938,6.367992188,6.507578613
6.575390137,6.635041016,6.593571289,6.437875488,6.600807129,6.616863281,6.78502002,6.775818359,6.728969238
7.521412109,7.436849121,7.442154297,7.131676758,7.333976563,7.385650391,7.707622559,7.709444336,7.599125977
8.363789063,8.407083008,8.305977539,8.118345215,8.202181641,8.037534668,8.455167969,8.434273438,8.513064453
9.772337891,10.02462598,9.527985352,9.371236328,9.30869043,9.544344727,10.18032813,10.17350586,9.936717773
10.7333252,10.98527832,10.91276367,10.36560156,10.38471289,10.70753516,11.26387891,11.16719434,11.14588379
11.06084668,10.96511328,11.09150781,10.65835059,10.55125781,10.78305664,11.20151758,11.0921582,11.23658008
10.16783984,10.27665527,10.43834473,9.705774414,9.821694336,10.15903613,10.56533203,10.84797461,10.66179199
7.315728027,7.271056152,7.528343262,7.411947266,7.169135742,7.408230469,7.80859668,7.742142578,8.322393555
7.645987793,7.733612793,7.578401855,7.130378906,7.352000977,7.306945801,7.766823242,7.830020996,7.825334961
8.015691895,8.31927832,7.992798828,7.606397949,7.698447754,7.687658203,8.273361328,8.154023438,8.058125488
8.218487305,8.573240234,8.343413086,8.00536084,8.085980469,7.940645996,8.537286133,8.583542969,8.558861328
8.540084961,8.151733887,8.446930664,8.2446875,8.186212891,8.135324707,8.629895508,8.674385742,8.665027344
8.418105469,8.70269043,8.485224609,8.103785156,8.020930176,8.047179199,8.467853516,8.514922852,8.490994141
8.516162109,8.471697266,8.533885742,8.027341797,8.048599121,8.025596191,8.417745117,8.574283203,8.664179688
8.568725586,8.534039063,8.585958008,8.274722656,8.35571875,8.3330625,8.751936523,8.711261719,8.775672852
8.321801758,8.351670898,8.482726563,7.928102051,8.283983398,8.021474609,8.214608398,8.203742188,8.093078125
5.385919922,5.37177002,5.371258301,5.500732422,4.819830078,5.384775391,6.392535156,6.02327002,6.217757324
3.796375732,3.901488037,3.778319336,3.613903076,3.563095947,3.610645752,3.889153076,3.740092529,3.797286621
7.84680127,8.135603516,8.246119141,8.375114258,8.299325195,7.893887695,8.041425781,8.03326416,8.237662109
7.052306641,7.316935059,7.199958496,7.706156738,7.327958984,7.859042969,7.341496094,7.239110352,7.445602539
7.890475098,7.964709473,8.046321289,8.273522461,7.991828613,7.893268555,7.850465332,8.224767578,8.185411133
9.390782227,9.493632813,9.41184082,9.189120117,8.933107422,9.229583008,9.611570313,9.777647461,9.85744043
10.00447363,10.08045313,9.535448242,9.971308594,9.855000977,9.934850586,9.987664063,10.18954102,10.26405664
10.06027637,10.3349375,10.11560645,9.949305664,9.921651367,9.8408125,10.22360742,10.26430762,10.31356543
10.06839844,9.913048828,10.02929492,10.28086328,9.943396484,9.581166016,10.07766406,10.04064746,9.558285156
9.514194336,9.401874023,9.410223633,9.843773438,9.437245117,9.155433594,9.461601563,9.55677832,9.550601563
9.361899414,9.663023438,9.788731445,9.230685547,9.655149414,9.417676758,10.05007617,10.0325957,10.04531348
9.027291016,9.212074219,9.00430957,9.40603125,9.101754883,9.044228516,9.341953125,9.462289063,9.506417969
4.917775879,4.851971191,4.929375488,4.832848633,5.005057617,4.757312012,5.637418945,5.187608398,5.302300293
5.364395996,5.498549805,5.479119629,5.483344238,5.580788086,5.587269043,6.263642578,6.294246582,5.769678711
7.238675781,7.086265137,6.946015137,7.00834668,6.918183594,6.963835449,7.732323242,7.782944336,7.321003906
9.785474609,10.32633203,10.56729102,9.555231445,9.670743164,9.526103516,11.56648242,11.42700977,10.60250195
11.91,12.22192285,12.22924023,11.09435742,10.96044531,11.20801074,12.56514746,12.56162695,12.54954688
11.62321875,11.74703613,13.62169629,12.08680176,11.92529492,12.0117627,13.49754297,13.51043066,13.33149316
12.01936914,12.2996875,12.49281445,11.68324902,12.07027539,12.46974902,14.59027832,14.80321484,14.51422363
11.04464063,12.48879102,12.46988672,11.39373535,11.38005371,11.41336914,12.96519141,13.01504199,12.77231543
10.9993291,10.8954502,10.61246094,11.02449121,10.91887988,11.42354102,11.99767285,11.92447363,11.9465
6.005813965,6.113449707,5.516804688,6.312206543,6.38413916,6.466178711,7.569790527,6.862030762,7.792956055
3.268330322,3.497012695,3.474542236,3.674837402,3.664480713,3.576570557,3.826381348,3.792137451,3.828115479
3.448467529,3.524795654,3.53417627,3.438650879,3.442124512,3.54588916,3.767208496,3.777806885,3.736756104
4.306231934,4.673499023,4.458223145,4.478196777,4.544281738,4.485046387,4.599683594,4.984912598,5.010217773
5.1285,5.230273438,5.257883301,5.329078613,5.24688623,5.300268066,5.456324219,5.481723145,5.380196777
4.587928223,4.942027832,4.724325684,4.635411133,4.506019043,4.702025391,4.995111328,4.857815918,5.010029785
4.339643555,4.481919434,4.349579102,4.361227539,4.345907715,4.465695801,4.503463379,4.519643066,4.481766602
4.494250488,4.559716309,4.461602539,4.551727051,4.469718262,4.492049316,4.728848145,4.622969238,4.644783203
4.384038574,4.362329102,4.432820313,4.471539063,4.401407715,4.396276855,4.595408203,4.588501953,4.589382324
4.338462891,4.514035156,4.383323242,4.522687988,4.399609375,4.393069336,4.545850586,4.557424805,4.622623535
2.520026611,2.73970166,2.608998535,3.140747559,3.03201123,2.976382813,2.759541992,2.763043945,2.879253662
15.0845,16.16038867,15.4418291,14.97109473,14.88575195,15.20681738,15.2567959,16.13237109,16.51814258
19.66455469,20.61905859,19.67764844,19.02226953,19.43693164,19.26913086,20.08050195,20.17591602,20.68065625
21.89668555,21.59389648,22.42152734,21.97837305,22.13783398,20.33622656,22.48639258,22.05320313,23.31329102
22.55247461,22.54889844,24.13493359,22.79904688,22.49844922,23.30054883,23.70012695,21.04236328,24.11764063
30.14398438,25.37648438,30.89342188,27.45693945,30.55284375,27.94001563,27.40817969,26.36174414,26.23296484
30.19256445,26.84708203,29.5683418,29.93325195,30.40041016,28.96364648,26.12569336,26.00997852,29.60731445
28.04592383,27.21600977,28.0697832,27.72171875,28.85961914,27.46146484,28.58410352,29.42976953,28.18690625
28.77231055,28.69349023,25.18248047,27.26267578,27.74732422,29.4479082,28.63225781,28.74395313,29.08784766
21.53192188,21.47782617,21.88407227,20.13416797,23.80259766,23.00614648,21.44453516,22.70731836,21.50905469
16.12816992,17.13318555,17.11778125,16.99837891,17.16990234,16.39542383,17.21274414,17.32078516,17.51914258
7.458400879,8.101104004,7.783938477,7.14022168,7.281597168,6.409337402,7.428426758,6.748682617,6.720467773
8.328267578,8.926117188,8.41221875,7.564166992,7.479057129,7.017693359,7.536320313,7.682509277,7.436373535
11.14343652,11.43077539,11.29997461,10.26926953,9.344407227,9.940475586,10.76123633,11.07504688,11.07922266
12.04503613,11.58328125,11.79844824,10.36372168,10.47299512,10.81944531,11.03866504,11.57797168,11.00908106
13.54300195,12.31558691,12.81426953,11.14367188,10.5844707,10.6475791,11.46643555,11.58507813,11.51227148
13.92050293,12.74490137,12.56140918,11.10153906,11.076125,11.24553027,11.81851465,12.07263672,11.95483496
13.07577441,11.80279004,11.55056152,10.01797461,10.15852734,10.40310352,10.58050488,10.50030078,10.62805859
12.94526953,11.14921387,11.26494141,9.789573242,9.398993164,9.716927734,10.04387891,10.05750098,10.0230459
13.11225586,11.12241016,11.56886231,10.51115918,10.1065,10.11949414,10.59070703,10.60189648,10.55211816
11.16105273,11.12490332,11.01179883,9.790979492,9.497407227,9.333550781,9.806266602,9.85190625,9.835605469
7.441291504,8.219436523,8.667394531,7.842843262,7.641068848,7.787794434,7.694946777,9.235285156,7.63495752
8.341566406,9.578794922,8.623567383,9.307476563,9.106725586,9.737124023,9.439849609,8.979466797,9.031242188
10.80156738,11.97525488,11.83193652,11.46869922,11.33694531,11.33937305,11.09902832,13.12302734,10.88391406
12.17394922,12.7386582,12.46600293,12.91567578,12.69099609,12.61747363,13.01958301,13.21413965,12.4950752
11.79589063,12.27943945,12.61340527,12.26147559,12.15281934,12.13549609,11.90348242,12.87556445,11.87320801
11.00248828,11.3807168,11.8377207,11.71005078,11.20910645,11.49610059,11.44339356,11.20580078,10.95607129
10.33358496,10.95615527,10.52346387,10.51058984,10.24047656,10.49478418,11.02325488,11.08290039,10.59971484
10.81041504,10.74861328,10.72592676,10.91881445,10.97790137,11.38569531,11.33180273,11.50786621,10.80794824
11.00212012,11.04474902,10.96098242,11.34433106,11.06498731,11.4682041,11.61034961,11.79621582,11.71991699
10.59049121,11.01906055,10.44740332,10.90387695,11.38122363,10.78491406,11.05908789,13.25807227,10.9262041
18.71904492,19.4522832,19.42521484,17.6802832,21.48076758,21.18270898,19.85516016,20.23377734,20.04501563
20.18508789,19.51953125,20.0662793,16.36235547,21.58952148,20.67008008,21.11294531,21.38874805,21.36784766
21.45857422,21.23300977,22.2475,16.59340625,21.74388867,23.16716211,21.8166582,21.84096094,21.9811543
21.25060742,21.06757227,22.11929102,18.79318945,22.6925332,22.62246484,21.83325586,21.81946484,22.25925195
20.61143359,21.03899805,20.61712891,19.52504492,22.94466406,22.8264707,21.53808594,21.46617969,21.52347461
20.91745898,21.00847461,20.61562109,19.360875,21.03613281,23.22337305,21.80513672,21.72794531,22.31470898
20.69832227,20.68164844,20.93193555,22.97067383,23.51021875,23.23262695,21.91335938,22.0485,22.18054492
20.28011133,20.1019043,21.10641406,24.05739258,22.90904492,24.34866406,21.32676953,22.41823242,22.90200977
17.98457422,18.78341406,18.6303457,21.59485938,21.0994707,21.32626367,18.28778711,20.21423828,19.78498242
17.60701172,17.96470117,17.91419531,19.30127148,20.34705859,19.50146875,17.48462305,19.44899023,19.35819336
8.863657227,6.653703125,6.653532227,6.579460449,7.335728516,7.151137695,6.398813965,6.525791992,6.642266602
10.57101953,8.301563477,8.301422852,8.289756836,8.806445313,8.691139648,8.131309082,8.184219238,8.119227051
12.50279492,9.712865234,9.71380957,9.364241211,10.7278877,10.59080176,9.79746875,10.19679785,10.10435059
14.25302441,11.3260127,11.32617481,11.36411426,11.79546191,12.16635449,11.18994531,11.54196484,11.36791895
10.9642832,10.87054004,10.87053906,10.6730918,11.74810156,11.3408252,11.13425195,11.24059375,11.14556641
9.849643555,9.907341797,9.907341797,10.08005078,10.92982129,10.98456543,9.910756836,10.03237988,10.14068945
9.89897168,9.917661133,9.917661133,9.945951172,10.35113281,11.26442578,9.81909668,9.743386719,9.871897461
10.01481836,10.16709473,10.16709473,9.879173828,10.80585547,10.80761914,9.724499023,10.37465039,10.18716992
9.092119141,8.916045898,8.916045898,8.732610352,9.910960938,10.01451465,9.433771484,9.092642578,9.003805664
6.566654785,6.573087891,6.573087891,6.347885742,7.15380127,7.341875977,6.580273438,6.69448291,6.695131836
9.576318359,10.1024502,10.36147363,9.762566406,10.42052441,10.27560645,9.964688477,9.90537793,10.1099707
9.349044922,8.917485352,8.814186523,9.739933594,8.686958984,8.694253906,8.87237207,8.826860352,9.673514648
8.3186875,8.203924805,8.093272461,8.508671875,8.12879248,8.352072266,8.105650879,8.354179688,8.773060547
6.935316406,7.115074219,7.031077637,7.209024902,7.293800781,7.44090332,7.209187988,7.119330566,7.258692871
6.366592285,6.402529785,6.287198242,5.906739258,6.224398926,6.262629883,6.464103027,6.408691895,6.448013672
6.903599121,6.966707031,6.837562012,7.011347656,7.31579248,7.300163086,7.079374512,7.156986328,7.196748535
7.660814941,7.704365723,7.658998047,7.52901416,7.188036133,7.413260742,7.762282715,7.768618164,7.784875
9.019076172,9.090979492,9.397954102,9.757213867,9.696094727,9.950445313,8.818705078,9.020120117,9.267783203
10.08441211,10.21267188,10.39071973,10.00091699,9.814149414,9.676075195,10.25292188,10.24957617,10.59362109
10.43777441,10.59000586,10.99446582,10.87635547,11.334875,10.96447363,10.4103916,10.89522852,11.04079102
10.75210059,11.3264209,11.26039258,11.31237402,11.3919043,10.91690039,11.06278125,11.1362627,11.24087207
11.60640625,11.57923633,11.50037891,11.7344209,12.19542969,12.0019668,10.99468066,11.49058789,11.75377344
11.62649414,12.31315039,12.07349121,11.81058301,12.08772852,12.03266699,11.70575195,11.92049902,12.11371289
11.78969629,12.24536133,11.92174414,12.33901172,12.52884473,12.42642481,12.16587988,12.16186914,12.30655664
11.51150391,11.82917578,11.9461416,12.10622754,12.11470606,12.09950781,11.72581445,11.81660059,12.0225957
11.90351953,11.60774414,11.50811816,11.95983398,12.03307129,11.9521084,11.84747559,11.94191016,11.84076465
11.73709863,11.46940332,11.57524121,11.68407227,11.66230762,11.4139082,11.80588379,11.83952441,11.80204883
9.263297852,8.706040039,8.92625293,9.160779297,9.041956055,9.219998047,9.481291016,9.225260742,9.880941406
10.81805859,10.94843457,10.59863672,10.57026563,10.67082324,10.64429004,11.01905273,10.97027344,11.06684961
6.700528809,6.778302246,6.845391113,7.044322266,6.920810547,7.263385742,6.955941895,6.987044922,6.889679199
8.168299316,8.73130957,8.270050781,8.837411133,7.623794922,7.699046387,8.465199219,8.551462891,8.525297852
8.427335938,8.207328125,8.696251953,7.539125977,7.756337891,8.041189453,8.311932617,8.219589844,8.186477539
8.568382813,9.254451172,9.588313477,8.838368164,8.698823242,8.785413086,8.968415039,9.105555664,9.143347656
9.167469727,8.775061523,9.483395508,8.946651367,9.239021484,9.076379883,9.63055957,10.15011914,10.07425488
10.12511328,9.313291016,10.15374219,9.802359375,9.791975586,9.710964844,10.63136621,10.38574121,10.43504785
9.593083984,9.538606445,9.816510742,9.442563477,9.579413086,9.852640625,10.42141504,10.50097461,10.44664356
8.911460938,10.02397363,9.565513672,9.011148438,8.968146484,8.985560547,10.2166416,9.771911133,10.17400684
8.948517578,9.572671875,9.139253906,8.522430664,9.157441406,9.220383789,9.134229492,9.605441406,9.340373047
8.88937793,9.634799317,9.371050781,8.778560547,9.15332666,9.32441211,9.573589844,9.758057617,9.703975098
8.830238281,9.696926758,9.602847656,9.03469043,9.149211914,9.42844043,10.0129502,9.910673828,10.06757715
8.715930664,9.244064453,9.672613281,9.299200195,9.442262695,8.815693359,10.179625,10.06172852,10.10114453
5.645769043,6.765604492,5.903581543,6.021947754,5.944367188,6.566123535,6.196916504,6.127128906,7.238854492
5.905129883,6.991630371,6.79488916,6.55796875,7.06533252,6.822211426,6.898662598,7.071284668,7.338849121
6.809102539,10.23169434,7.354189941,7.894825195,8.130308594,7.835437012,8.41934082,8.303767578,9.691925781
7.844842285,9.678998047,7.881905762,9.346396484,9.177570313,9.433604492,9.022104492,8.946016602,9.588386719
8.628981445,9.931301758,8.463442383,9.392362305,9.379311523,9.998951172,9.597287109,9.867125,10.01421387
7.453120117,9.360125977,7.678376953,8.282893555,8.872098633,8.413632813,9.293186523,8.92275,9.532942383
7.541790039,8.35899707,7.103354492,8.530425781,8.908682617,7.800901367,7.055643066,7.259137695,7.596569824
6.857228027,7.026333984,6.804365723,8.56034375,7.375936523,7.540526855,7.06534082,7.106136719,8.216677734
7.051037842,7.118713867,6.953305176,7.81731128,7.326091553,7.430875732,7.321723145,7.159468995,8.407185059
7.244847656,7.21109375,7.102244629,7.074278809,7.276246582,7.321224609,7.578105469,7.21280127,8.597692383
6.905240234,8.11771582,6.646110352,6.89412793,7.366444824,7.463533203,7.488029785,7.336623535,8.801151367
2.661033203,3.365955322,3.182578369,2.790051514,3.831371826,3.672114746,2.992670898,3.751026367,3.890855225
3.451602295,4.18299707,3.601796143,3.54155957,3.735233154,3.557217041,3.410034912,4.208526367,4.513831055
4.253966797,4.311574219,4.283903809,3.842126221,3.90405542,3.894109863,3.881162598,4.249194824,4.492475586
5.18473291,5.521322754,5.379358398,4.444774902,5.478680176,4.93588623,4.685033691,5.532479492,4.899964355
5.665662598,5.530767578,5.796394531,5.333081055,4.355838379,5.175632324,5.453706543,5.461994629,5.297339355
6.142733887,6.143562988,5.855358398,5.15181543,4.812354492,6.096547363,6.283736328,6.382429199,5.76175293
5.748696289,5.476833496,4.914087891,4.593101563,4.581152832,4.871621582,5.367089355,5.358456543,5.078793457
4.955088379,4.795413574,5.088790039,4.850641602,4.810312988,4.963416016,4.837599609,4.809544922,4.989900879
4.955905762,4.744352051,5.099364014,4.233763428,4.710945557,4.930353272,4.51533252,4.886508057,5.036696534
4.956723145,4.693290527,5.109937988,3.616885254,4.611578125,4.897290527,4.19306543,4.963471191,5.083492188
4.867244629,4.795391113,4.961919434,4.392937988,5.114958496,5.232753418,3.933046631,4.886102051,4.801308594
3.049480713,3.16228125,2.943296387,3.709750244,3.424002686,3.90295874,3.37909082,3.86998877,3.468543701
4.481084961,4.08100293,4.031438721,4.01862085,4.163206543,4.404030762,4.134180176,4.094612549,3.653923828
7.411687012,6.765570801,6.554262207,7.192016113,6.485545898,6.96600293,7.044070801,7.360861816,7.17079248
7.919690918,7.603844727,7.592961426,7.949205566,7.863992188,7.806348633,7.835410156,7.834886719,7.874056152
8.084458496,7.398873535,7.67359668,7.251791016,8.056082031,7.377304199,7.402479004,8.696725586,7.364013184
7.258835449,6.789382324,7.02014502,7.394320801,7.040901367,7.354948242,7.580819336,7.459729492,7.469861816
7.575887207,7.317506836,7.007677246,7.671785156,7.658937012,7.87020752,7.609382813,7.43672168,7.514883789
7.573660645,7.443611328,7.328343262,6.537354492,8.013022461,8.061790527,7.933306152,7.772921875,7.927569336
8.061568359,8.017747559,7.778063477,7.341847656,8.045748535,8.261767578,8.408254883,8.346417969,8.068357422
8.09502002,7.844685059,8.287702148,6.892859375,8.161503906,8.300821289,8.109787109,8.08812207,8.013611328
2.523168213,2.491656982,2.515463379,2.610296631,2.593158936,2.587505615,2.583412598,2.576207275,2.588276855
2.285800049,2.289259766,2.287234619,2.173525146,2.361289063,2.284100098,2.299800293,2.333451904,2.29944751
3.102474121,3.373139404,3.026323975,2.677195557,2.822057373,2.779925293,3.090612793,2.993354004,3.036038574
5.160516602,5.342164063,5.729355469,4.753812012,4.753124023,5.98810791,5.377778809,5.163950684,5.103091309
6.458485352,6.987029785,6.75062793,5.780905273,5.72620459,6.848918945,6.522895996,6.401053223,6.63930957
6.917975098,7.612798828,7.175148926,6.127031738,5.851637207,7.642052246,6.98226123,6.682466797,6.77122998
6.646344727,6.905227051,7.019657227,6.310137695,6.076915039,7.243995605,6.809686035,6.832046875,6.784210938
6.558600586,6.687210938,6.81513916,6.269166504,6.054532715,6.929191895,6.831075195,6.898237305,6.88460791
6.112290039,6.365876465,6.427392578,5.515524902,5.650507813,5.956833984,6.246876953,6.439606445,6.378719727
3.925973389,3.961643066,4.129,3.689894043,3.777857422,4.249484375,3.974025146,3.980617188,3.918242432
8.719811036,8.579948243,11.13702295,9.440334473,8.868481446,8.716917969,9.083974122,9.053531739,8.856717286
8.906601563,8.842956055,11.32819238,9.677827148,9.143917969,8.850103516,9.462362305,9.438765625,9.298011719
9.801860352,9.8206875,10.18395508,9.515831055,9.979592773,9.072650391,10.18320117,10.13677734,10.06231152
11.07858691,11.4356416,13.54965332,11.78052246,11.08389941,10.64392481,11.37027148,11.31782617,11.12897852
11.21768066,11.33052539,11.65973828,11.7895918,10.63460645,10.64166992,11.36095215,11.25151465,11.25008106
9.320643555,9.263150391,11.4416875,10.01719824,8.790102539,8.860549805,9.559186523,9.521162109,9.578518555
8.689249023,9.190683594,10.50348242,9.530105469,8.482991211,8.805509766,9.133713867,9.029919922,9.138154297
8.862686523,9.213865234,11.59888477,9.269666016,8.757155273,9.004261719,8.835131836,8.817584961,8.918929688
8.986327637,9.282048828,11.66725439,9.312105957,8.865976563,9.012169922,9.033014649,9.016378418,9.074970215
9.10996875,9.350232422,11.73562402,9.354545898,8.974797852,9.020078125,9.230897461,9.215171875,9.231010742
8.533020508,8.31694043,10.94585352,9.202841797,8.593044922,8.583732422,8.705585938,8.668297852,8.415422852
5.649742432,5.451778809,5.483984375,5.234882081,5.10103833,5.134146485,6.260876465,6.155814697,6.176328369
8.042296631,7.841735108,8.065582032,6.73501294,6.533875977,6.558968262,7.697481446,7.819552979,7.550510254
9.801415528,9.571989258,9.853355957,8.371645508,8.387180664,8.468365479,9.635725586,9.81233545,9.391630371
10.64449512,10.62883594,10.62480225,9.647036621,9.748600098,9.761070313,11.09756641,11.49519873,11.17817871
10.66023975,10.96372363,10.72240479,10.72592334,10.83379346,10.72951074,11.08889941,11.27556738,11.12376123
10.03749609,10.11475684,10.07996533,10.17792676,10.51755518,10.21597607,9.607878907,9.737685547,9.579530274
9.051563477,9.137129395,9.406316895,9.006083985,9.357072266,9.156485352,8.951921387,9.654743653,9.223598145
8.911021485,8.960512207,9.301652832,8.870780274,9.240014649,9.01087207,9.764098145,9.767709473,9.508328614
9.73783252,9.42297461,9.924962403,9.935463867,10.10567578,9.667698731,10.46633398,10.21888037,9.192666016
7.265484375,7.001755615,7.319021973,7.843242188,7.7447146,7.609320069,8.236731934,8.297194824,7.29143628
2.082479248,2.342091553,2.334811279,2.694889893,2.793754883,2.366236084,2.391635986,2.385059082,2.438677246
3.353033691,3.317269775,3.299938721,3.234202148,3.32019458,3.245871094,3.312069092,3.282252441,3.235314209
5.180449219,5.190222168,5.260501953,5.230131348,5.281044434,5.354572754,5.256918457,5.162842285,5.143398438
5.979769531,5.882479492,5.923476074,6.008246094,5.78057666,6.078638184,5.970938477,5.888303223,5.969768066
7.114312988,7.129035645,7.095803711,7.253808105,7.448229492,7.354213867,7.227959473,7.314306641,7.19995752
6.648785156,6.778152832,6.643654785,6.796817383,6.843559082,6.748587402,6.747772949,6.699112793,6.719994629
6.963670898,6.914812988,6.951885742,7.012078613,6.925601074,6.993836426,7.000208984,6.937126953,6.902933594
7.055104004,7.007027832,7.040785156,7.064465332,7.076067871,7.112416992,7.155223145,6.963464355,6.953778809
6.120785156,6.172722168,6.213849609,6.212404297,6.104720703,6.243516113,6.483327148,6.335468262,6.238437012
5.440758301,5.266307129,5.762916504,6.275740723,5.540239746,5.675348633,5.558139648,5.535731445,5.424318359
